######################################################################
# Cave Goblin rebels
######################################################################
cave_goblin_rebel = {

	color = { 50 85 210 }

	area = nation 					# Stays within the nation
	government = any	
	defection = none				# Does not defect
	independence = none				# Does not strive for independence
	gfx_type = culture_province
	
	resilient = no
	reinforcing = yes
	general = yes
	smart = no
	unit_transfer = no
	will_relocate = yes
	
	artillery = 0.2
	infantry = 0.8
	cavalry = 0
	
	morale = 0.6
	
	# Possible handle actions
	handle_action_negotiate = no
	handle_action_stability = no
	handle_action_build_core = no
	handle_action_send_missionary = no
	
	# The rebel type with the highest modifier for this province gets picked
	spawn_chance = {
		factor = 0
		
		modifier = {
			factor = 10
			has_province_modifier = infested_hold
		}
		
		modifier = {
			factor = 0
			NOT = { has_terrain = dwarven_hold }
		}

	}
 
 	# This is checked for EACH province in the Area of Operations
	movement_evaluation = {
		factor = 1
		modifier = {
			factor = 0.1
			units_in_province = 1
		}
		modifier = {
			factor = 0.001
			controlled_by = REB
		}
		modifier = {
			factor = 10
			is_capital = yes
		}
		modifier = {
			factor = 1.5
			unrest = 2
		}
		modifier = {
			factor = 1.5
			unrest = 4
		}
		modifier = {
			factor = 1.5
			unrest = 6
		}
	}
 
 	# Province Scope
 	siege_won_trigger = {
		always = yes
 	}
	siege_won_effect = {
		if = {
			limit = { has_province_modifier = ruined_hold }
			remove_province_modifier = ruined_hold
			remove_province_modifier = hold_being_restored
			add_permanent_province_modifier = {
				name = infested_hold
				duration = -1
			}
		}
		add_permanent_province_modifier = {
			name = devasted_province
			duration = 1095
		}
	}
	
	# Country scope
	can_negotiate_trigger = {
		always = no
	}
	
	# Country scope
	can_enforce_trigger = {
		always = yes
	}
	
	# Localisation for their demands
	demands_description = "cave_goblin_demand"
	
	# Country Scope	
	demands_enforced_effect = {
		every_owned_province = {
			limit = {
				has_rebel_faction = REB
			}
			add_devastation = 50
		}
		every_owned_province = {
			limit = {
				has_province_modifier = ruined_hold
			}
			remove_province_modifier = ruined_hold
			remove_province_modifier = hold_being_restored
			add_permanent_province_modifier = {
				name = infested_hold
				duration = -1
			}
		}
		add_prestige = -50
		add_legitimacy = -50
		add_stability = -1
	}
}
