#179 - Berry | 

owner = A27
controller = A27
add_core = A27
culture = redscale_kobold
religion = kobold_dragon_cult

hre = no

base_tax = 1
base_production = 1
base_manpower = 1

trade_goods = wool

capital = ""

is_city = yes









477.1.1 = {	
	owner = A27
	controller = A27
	add_core = A27
}
