# No previous file for Orstengard
owner = Z14
controller = Z14
add_core = Z14
culture = olavish
religion = skaldhyrric_faith

hre = no

base_tax = 2
base_production = 1
base_manpower = 1

trade_goods = wool

capital = ""

is_city = yes






