country_decisions = {

	lorentish_nation = {
		major = yes
		potential = {
			NOT = { exists = A01 }
			OR = {
				culture_group = lencori
			}
			NOT = { has_country_flag = formed_lorent_flag }
			OR = {
				ai = no
				is_playing_custom_nation = no
			}
			NOT = { tag = Z01 }	#Anbennar
			NOT = { tag = A01 }	#Lorent
			OR = {
				ai = no
				NOT = { exists = A01 }
			}
			is_colonial_nation = no
			OR = {
				is_former_colonial_nation = no
				AND = {
					is_former_colonial_nation = yes
					ai = no
				}
			}
			normal_or_historical_nations = yes
			was_never_end_game_tag_trigger = yes
		}
		provinces_to_highlight = {
			OR = {
				province_id = 67	# Lorentaine
				province_id = 74	# Kyliande
				province_id = 69	# Rewanfork
				province_id = 61	# Lorenith
				province_id = 68	# Redfort
			}
			OR = {
				NOT = { owned_by = ROOT }
				NOT = { is_core = ROOT }
			}
		}
		allow = {
			is_at_war = no
			is_free_or_tributary_trigger = yes
			is_nomad = no			
			NOT = { exists = A01 }
			owns_core_province = 67	# Maine
			owns_core_province = 74	# Blois
			owns_core_province = 69	# Vermandois
			owns_core_province = 61	# Île-de-A01nce
			owns_core_province = 68	# Orléannais	
		}
		effect = {
			67 = { #Lorentaine
				move_capital_effect = yes
			}
			change_tag = A01
			swap_non_generic_missions = yes
			remove_non_electors_emperors_from_empire_effect = yes
			if = {
				limit = {
					NOT = { government_rank = 2 }
				}
				set_government_rank = 2
			}
			lencenor_region = {
				limit = {
					NOT = { owned_by = ROOT }
				}
				add_permanent_claim = A01
			}
			add_country_modifier = {
				name = "centralization_modifier"
				duration = 7300
			}
			add_prestige = 25
			if = {
				limit = {
					has_custom_ideas = no
					OR = {
						ai = no
						AND = {
							ai = yes
							has_idea_group = default_ideas
						}
					}
				}
				country_event = { id = ideagroups.1 } #Swap Ideas
			}
			set_country_flag = formed_lorent_flag
		}
		ai_will_do = {
			factor = 1
		}
	}
	
}
